<svg xmlns="http://www.w3.org/2000/svg" xmlns:xlink="http://www.w3.org/1999/xlink" width="199" height="200" viewBox="0 0 199 200">
  <defs>
    <clipPath id="clip-path">
      <rect id="Rectángulo_2180" data-name="Rectángulo 2180" width="198" height="198" fill="#44444a" stroke="#707070" stroke-width="1.3"/>
    </clipPath>
    <clipPath id="clip-Más-_secciones">
      <rect width="199" height="200"/>
    </clipPath>
  </defs>
  <g id="Más-_secciones" data-name="Más- secciones" clip-path="url(#clip-Más-_secciones)">
    <g id="Grupo_6847" data-name="Grupo 6847" transform="translate(-221 -1289)">
      <g id="Grupo_6557" data-name="Grupo 6557" transform="translate(221 1290)">
        <g id="Grupo_6521" data-name="Grupo 6521" transform="translate(0 0)" clip-path="url(#clip-path)">
          <path id="Línea_234" data-name="Línea 234" d="M198,20.8H0V-.65H198Z" transform="translate(0 88.925)" fill="#44444a"/>
          <path id="Línea_235" data-name="Línea 235" d="M20.8,198H-.65V0H20.8Z" transform="translate(88.925 0)" fill="#44444a"/>
        </g>
      </g>
    </g>
  </g>
</svg>
