<svg id="Componente_3_1" data-name="Componente 3 – 1" xmlns="http://www.w3.org/2000/svg" width="26" height="26" viewBox="0 0 26 26">
  <rect id="Rectángulo_1799" data-name="Rectángulo 1799" width="26" height="3" fill="#fff"/>
  <rect id="Rectángulo_1823" data-name="Rectángulo 1823" width="26" height="3" transform="translate(0 12)" fill="#fff"/>
  <rect id="Rectángulo_1824" data-name="Rectángulo 1824" width="26" height="3" transform="translate(0 23)" fill="#fff"/>
</svg>
